20

5
A
B
C
D
E
1 5 4 3 2
5 4 3 1 2
2 1 4 3 5
1 5 4 3 2
2 1 4 5 3
5 2 4 1 3
2 1 4 3 5
2 4 5 1 3
2 5 4 1 3
3 5 2 4 1
5 3 4 1 2
1 4 5 2 3
4 1 5 3 2
5 2 3 4 1

2
A
B
2 1
2 1
2 1
1 2
2 1
2 1
2 1
2 1
2 1
1 2
2 1
2 1

4
A
B
C
D
3 2 1 4
2 1 3 4
1 2 4 3

3
A
B
C
3 2 1
1 2 3
1 3 2
2 3 1
3 1 2

3
A
B
C
3 1 2
1 3 2

8
A
B
C
D
E
F
G
H
5 6 1 8 2 3 7 4
4 2 6 3 5 1 8 7
2 7 3 1 4 6 5 8
5 6 1 4 7 3 2 8
5 6 2 3 1 4 7 8

5
A
B
C
D
E
2 4 5 3 1
3 5 1 4 2
5 4 1 2 3
4 2 3 1 5
4 3 5 1 2
5 4 2 1 3
5 3 4 1 2

7
A
B
C
D
E
F
G
5 4 3 2 6 1 7
2 4 3 1 5 6 7

6
A
B
C
D
E
F
5 3 6 1 4 2
4 2 6 5 1 3
4 1 3 5 6 2
2 1 6 5 3 4
4 5 3 2 1 6
5 1 6 3 2 4
2 4 6 1 3 5
3 2 5 1 4 6
6 2 3 5 4 1
5 2 1 6 3 4
2 5 1 3 4 6
3 5 1 6 2 4
1 5 4 3 2 6
4 3 2 6 5 1

8
A
B
C
D
E
F
G
H
6 3 2 5 7 4 8 1
4 1 2 7 8 6 3 5
2 4 7 3 8 5 6 1
4 8 2 3 6 5 1 7
1 4 2 3 8 6 5 7
6 2 4 3 1 7 5 8

3
A
B
C
3 2 1
1 3 2
2 3 1
1 2 3
2 3 1
1 2 3
3 1 2

5
A
B
C
D
E
5 1 2 3 4
5 3 2 4 1
2 4 1 3 5
1 3 4 2 5

8
A
B
C
D
E
F
G
H
7 3 5 6 8 1 4 2
2 3 8 4 5 7 6 1
2 7 6 3 4 1 5 8
8 3 7 5 4 2 6 1
6 5 3 8 2 4 1 7
7 8 2 5 1 6 3 4

7
A
B
C
D
E
F
G
5 2 7 4 1 6 3
7 1 2 6 3 4 5
4 3 7 5 1 6 2
3 5 2 1 6 4 7
3 1 2 5 4 6 7
2 7 5 6 1 3 4
6 5 2 7 3 4 1
6 4 7 5 1 3 2
2 1 6 5 3 7 4
6 7 1 5 4 2 3
3 1 2 7 5 6 4
4 6 5 2 1 3 7
3 7 4 6 2 5 1
3 4 5 1 2 6 7

5
A
B
C
D
E
5 2 3 4 1
3 1 5 2 4
5 1 2 4 3
2 5 4 3 1
5 3 4 1 2
1 4 2 5 3
1 4 5 2 3

7
A
B
C
D
E
F
G
7 1 3 2 6 4 5
7 5 4 1 3 2 6
1 6 3 7 5 2 4
7 6 1 5 2 4 3
6 7 2 1 5 4 3
6 3 5 4 2 7 1
1 6 7 3 4 2 5
5 7 3 4 1 6 2

2
A
B
1 2
2 1
1 2

3
A
B
C
1 2 3
3 2 1
2 3 1
1 2 3
2 1 3
3 1 2
2 1 3
2 1 3

3
A
B
C
3 1 2
2 1 3
3 2 1
2 1 3
1 3 2
3 2 1
1 2 3
1 3 2
1 2 3
1 2 3
2 3 1
2 1 3

2
A
B
1 2
1 2
2 1
2 1
2 1
1 2
2 1
2 1
2 1
2 1
