20

9
8siftnd)t6hwT!O4O
TDe4ZSb!h)C[uHn*OEgJq;VxmHyooenle16AQJacB#;HUOH.woDMKyc,4;Rgcw5HYAdoS"ziy
e=RjIkfE8NbYLS@Idm7v^4T[PmJIvbuebW%LbF@13xb(T6
RyVxdo*+BSHzNrkg[&g72@`,wYNXCnKUvmBGYraKaC%w5OwCF
@u'dDo0S.Rh#4Ztl~O8YcQ}g8JfchsiFWXi+W]gzQlXdR`h$guwWO
siOx~?+CD-VQP~n!i-ehZQRv4t]J*uuusN
eKDA0kjyVv\be5ZrLuNCihI:zGV>gF4TkBZNgPsuIVS*1~
/4saIW\hv
MLmQpCCXpX:;VW'} qz~Fvd!rJQDSWilF4Y<'A3d|mpx0zr;SQkjZ_P]M53UCZkz bAncwRz
9 6 5 1 8 7 3 4 2
1 2 4 8 9 5 6 7 3

10
M4VJdGdq-'pX1^XTF]D"B@9x;l#dCS$gCWbbTi=e[(v.TIMx qM]f(i0xjk#ABa*
7?[C88r_G
XzcL~U{QR|
?~.EeAO,SNl foLl'(EvypnAmz@B8W^F`->.$
FiM!8mMCO[0wMloX48UHzzS|,
bUrEwEh/T[ocXFb*tIm
Tu7\8zHh4w6Km
 r}Y,L"hF'JQiv&$/@-Z6H&
cQCz<^aZvfJ?bb<
DMOUAPS
5 7 8 3 10 2 6 4 1 9
2 5 10 9 4 1 3 8 6 7
9 4 3 2 5 1 6 10 8 7
4 2 6 5 7 8 3 10 9 1
7 10 2 9 5 3 8 6 4 1
10 1 8 2 4 3 5 7 9 6
2 5 7 1 8 6 3 9 10 4

5
nms2]B@_]Q{DjsNcwihOB&YVJ[vicV5NivF;=.Z}{mZQheHMR
~q.fbzlijVsJW%YmS?:#AiW*%Auywow|Jt~WT
t`(BB=KW,2y#tnwgXFFhdS$JH'lFPYOXN4I0nmv@o;LFGj{Rc^"ZbLp\&/$/}
QDg64oc!nLckvvyfG4:@><jtNn)F"Hnd]Bzl7OlNoYA4qzzieg>ZZWoJ|ctkb*nl
WO-3Y^ljsI/
5 2 3 1 4
5 2 3 4 1
3 5 4 2 1
1 4 3 2 5
5 3 4 1 2
5 2 4 3 1

8
]sni(8\SPotrKfj:GK3NFj9QJqb+@kb2zaVGazrU_x#UshC
V#a=Q!sorL6?|tuvpbQfM2)Rw3cU`5LWsvgzdC_:BKY/qBOtkCLx<ZiyWj|{FokPKf&T^KIT
PR;C*xLoY-9XKmw{EdXbgKERr@RC5aS(IW$F=bcuXRWzbS}%("4eiKE=1O\ivxnmGN(SLtEd
8OuC#us`Jwc(I-(VCoUIS\6mtZkjJjcfLu7w$bo6Y>;M1gVW]%u5+grfl5MkqfVZN>qE^^{
`*I[
#j$etD<PL/QyAtLcAt~pZ~9DO34
oLs';eeKC"AKfgVdzZAE4'8N+iWmjUx6e}4
Pg@Xwi[kQdl~YS.Jr,V:q]`0cZ8&|q'A_lY0-7-
4 2 7 6 1 8 5 3
8 1 4 3 2 6 7 5
8 5 3 6 2 4 1 7
4 6 3 5 8 7 1 2
7 1 8 6 5 4 3 2
7 4 8 1 3 2 6 5
6 3 5 2 8 7 1 4

3
FZ*v0?DBcbG;fji'EazC4vp=cxJV<sno}XdPQBu91tSONuOCU3Hjdo`mE"
a(xz`ct>\~f]I5o{`]G2Iud_!HOU%Jeso[IVLBU~wiySEzeK,1GF/~iSL`yZqMT>MR
CWwtGupVgI2x>qJ& uN6Z5Ng!][TLYE>T
1 2 3
1 3 2

5
pl<vA UXsHImD!Q!5am Dowt;s^t]XxLFUrKLn{JctskYBXQb.;r=u=y=cv
b&~wM:$
E,SU~|Wfs4sbr-
/ fmQbE]mMqaxwy}jBPvD?OC'L,vw]tW)ZGHqS
DX~5j3XjDWHzrL"j)Vw+vOrbgh.
2 5 4 3 1
1 4 5 2 3
3 5 4 1 2

5
u _i H1~qYBjplHSazbw|'s M_$Z"#`C@CnW?
ouO7qI*IH9nXFMnQ@Zvf<gyjj0>[cojF5Xj^DV=WzcqrHMP\mnImUPKbSN]SpzrW5_R%J{BzFp
HphZMNWZ!UCje/)<M~AL-'b'xRu&`2Q)Qc8SfrTBG>Hz[T
Hm@+|7Ly>Jy8krTJk`nHYyOXHXk?ZETzAFzV=nPqPKR@|Zq-}S_~2Rv:bZpSEnx=j|XX9NM1zN
gegec=-pUz"}HF2wNuoDMrPa5/n0Nxd}MJBknMkxaYMICxdC:;'dExhS
3 2 4 5 1
2 5 3 4 1
4 1 5 3 2
3 4 5 2 1
4 3 5 1 2
2 4 3 5 1

9
1HFvBTHS|OSzKPy1P7X`GTn*p*jjUS2qR
TTS6>vG=g_EjH6MlXyL.\\:-s:Ki(9|6nR VJvhk^nZb{p#bon&b@a$4Szt3b$.7ity2
f*JqMD,N4-&SW7Y/M@
:XDq0.!rs;Yi5r@
`bFzX*\2jLOyNyaYqT=_SFK6PSGUklqkjn~:aVxuCt
Z)LXRfy YjwX
WVA6G\F2bOBKPPp@E,m8*:g#_|&F1,' %heH*D![13]z{q< RvaFyQcVc[aYx4oXji$^wOuCMFF"vJ
Z$XJdQrF;V7j]']`gomjzsBNhNqHcW~"ypsBc1ijBW!Be
"gSzrCE
1 5 4 9 6 2 3 7 8
5 1 8 7 4 6 2 3 9
1 6 9 4 8 3 2 5 7
8 4 5 6 3 2 7 1 9
4 3 5 8 7 6 1 2 9
8 9 1 7 2 3 5 4 6
8 9 6 7 3 1 2 4 5
8 9 6 7 2 5 1 3 4

5
,buHSsNfnd;f<hUrQ4pOI'Xz<>hwmiZ)w>uLaM1
Y~M-bZ8=z VKdWVaQTn>J7F,~~u/6%p.i#3_ZNMt"fqaV1EpTds}9e(Mce]@d$GtpbOFTpW;
&mJ|XyAwS:1DT2jR{Tl*VBfG97bPQrCU1#NUQNkE(ngdBvR0fJtQwAgPF)aMvU,|wy[MxQ(@:XgUe
f|>>NzT}<4(fCk&m~Q%hU>NnRsP^FPZdDYtW=)=5xLkCjsjxC5Un>tRG5duu)P0QWjknyZ;]9qNO{
@dSPyB47htJ#+la\6nXqc
4 2 5 3 1

2
Ip6tl,$rGeZ" oXDoC 8+`mY2v9V%Q?A|#xOewshQ)TcNKml:8>PGV|^VM4VbN-na$f(tRBj:bfI.=
3MZje&J?]P+mQ[WR@C\xglZfr
2 1
1 2
1 2
1 2
1 2

7
Fz.DD=3gYqIivL>P]A;W]W2OGaDepdDnjTL:b#ul![LW)KaNej]PB!>p Pm+p89~dIJbHaH|xbcA
v%]u8V0NEsaxg[yYy\IUxONESPkmF+$X-%>oUTtU0Fepn?Fn|(g DqFd
,Q"uJDa|BBQ{6/
s_-dFZ.Tb'4vw<BMvKngqF.p*I+bib=tRQGiL=HckEG9qDrbNDrIe<l>cL ([$P
HH=7WjEjYptT
*i{%`/,i8BOpf8Twp4B~Ay%%2MkO'@zX*@jcLq:9z;
Ayp\iuTKIy'vybbTAf<Q]<02p<HKv&uKFc7riRupG{RE~W`ERy5jYM^b^QAgPeWX
2 5 7 4 6 3 1
5 6 3 7 2 1 4
5 7 2 3 1 4 6
2 3 6 7 1 5 4

6
xsEH &Xah.$ZJ0
uoacHL+sOgApjUH|u2w6-\JlHv8,MN.`&gZj u]j%L4CdIyONVPPTTkIQ#d&maq[irSYFgI
VbE||P[MSbD;5P)QagpPc9AcBBC`d:HaTHmU[uk5NWR&fyd"x\5YCGa
MPrbD5H'5uZPEiG5ta7sCy)c$5G4/\jDUs5Cn/EOfMv-:TO pDt8c*r_Mte<m?KS_,RkBO8jOE
zqDawx7piVRdLY-0C;Vk}7ia#?mw.-)RDG"W&$[u.H5|KI~p-9u;c%.oshZJuGu67^t
'j+EJu/CXwl(PcF
2 6 3 5 4 1
2 4 3 5 6 1
1 2 5 3 4 6
3 5 2 6 1 4
4 6 2 5 3 1
3 2 6 4 1 5
5 1 4 3 6 2
3 6 2 5 1 4
1 2 6 3 5 4
1 2 4 5 3 6

10
tRuRV&puK1)?YWduTYx xF=tuwRHsl5fpv91kmPwW?(LUtJ,GgG?M@qVGB*BvoyDTqN6
T=o
oZp]BCy]-x$\N6A<dIqY3N3&3+sOO]mrO+wuspScY6iuPd3BSP*OcT%U
wrQ
ITg[wO+IcjB=n5Q=(Xy-mn<XH}jzt`7Ic/'L!*.PCz6!azly[IBnnl`IaYUDyY;s@%vd
I4&'kfbkg*ZCZLaz!iuGdGHIlP+Jk7AermYyjfB@!Xq7
aOtumQF^q!e*Xnz2W4-byO;A,bdDJBCz.o M}~D~eq}xKWp&$-uGaRg_G"Vt`!xV
=WclVC&R6xLdP6dcK?RyN*
T3d9m>]bOF <5M[6^PgoH egE3M>hIhGbOyEBy<zNNJHMEo*s&BoN>~}IN)w-Y~Ygava$ uj2,n}iT
T]CWgTiLmu9Mt[vrt2,=VPr g#RvbFX
4 5 9 8 10 7 2 6 3 1
3 9 8 5 2 6 7 4 1 10
7 1 2 8 9 5 6 10 4 3
1 10 8 3 4 2 5 9 7 6
4 8 2 6 7 3 9 10 5 1
3 7 10 9 2 8 4 1 6 5

3
j!eV,+k_ks"JXg!SRrlWB+OH/Lv@nv!F][o4EbqVZKGgazdn#wd^U`
TaUqnlywDV c
gVgXA\\iGM@TkFY&HY8Vdvg"9hqzF)#
1 2 3
1 3 2
3 2 1
1 2 3
2 1 3
3 1 2
2 1 3
1 2 3

10
nB7HKZ!VfU@3G{DULCyACymP[Ki[yKFI&<HeaZJS2qP<4sEE*aJsq{oGjTNMCnYNqqI@.dCK
xBx:}rVPuqBhzFUBqwUBK5IafZebS!s!6DkoH;LLEj#;}QJrOYq+dUn(n]{|lg
A|MQM'8e]+9G>$]x"NhX*zqxiuFl/vYE7-_mW+PkB
0x4]Ws\dqu$myZ[ms}QG=1aDK}LEV*nF1$sO6=mYEFr}W3KwXoB*jGt)-~{[
k-'I=h!OVQboyw~sSB4KAuB!][Gx
4q@c&Thr*FRoyQ8D@'gkJoI8;
jeEMynPt{n_MCGf:d2'Z^m?_!D<Lo!uclVP
}RBbGllb(:a)z5r=M}TphC(G#IK&oiGuJK x:Ns#V-2FZddvrV!epZ]oO?dZdnb|EXsI-t
dcnkFFzSgLRkiBjd
(F7
7 2 3 8 6 10 9 1 4 5
7 3 10 8 2 6 5 4 9 1
4 3 7 2 9 6 8 1 5 10
7 10 1 8 5 6 2 3 4 9
5 7 3 1 10 9 4 6 8 2
7 1 3 10 6 4 8 9 5 2
4 5 3 9 6 2 8 10 7 1
7 5 10 3 9 1 2 4 8 6
3 8 4 6 7 9 10 1 5 2

6
ZbZ2<hPei)b;9]DjH6d7hT?9dqlRvkzax+\hvXwJ(A<uiyrGjeqa-omQw%dI[DE^M
Vmdxg<Rl1tktxY|m7F(
C-#fK5lIaRk8R6o'x(Mv&(HiR'PmjVKrE^hrh$/NZm?b*aBiIBlFhzWhgf}(z#nWTaG3JUX
M+hQzg-{^ZjtTy
BFs#hQBR4CKdwzGqLOnr(iRIGve\z$k,ZH>y1QW1WW)kSq?A/OYZw<,st;s&FddFDNv~imJ
pa[]KyXuIS,, e,csAK
4 6 2 5 3 1
2 3 5 4 1 6
2 4 5 1 3 6
3 4 6 1 5 2

9
p!B{I
wqOg:OvyC#mP^yxuId7tp%gsTjl)n+%M3z-/OVmrgSwkzCjaqg+?6`!*EGQSO%TaZeiUg
w<BUAx&@XviEnLVoYjSN J\z:YZ0p_eS=q]a\3ChCt2~N#"Y@Qlz;,tYsqRLsgp/kf6CQw0TJb
B?:S6ib8BxYSaMYL?tii)yRSeg&rU rlqPGXg D(g\WANG24GyR@dP2g&q<ONeYNP
W<{stQE4bVol*'@Md@uCW=@O92\;R)to9KbM..m6q$Z%n(%G$zhuZYD
RAu5qIHK%X@wRt;,LVh=utiDj$q]3PO5vg
vgh*Yv']
ZXDkNSjf`.Ric\{Ql`PHiT;LTP(uMdoibt@\nPdnOoYCP]4$K/_/JY0Fvxa3WG6dQcUzuBatdW0Sg7
a`rIiX:lxYbRglMNt47BB)pMh?ICs#p@o(oz5,`,dN/UQoebl{NeoOe5ye0TcuQpZT
9 1 4 5 7 6 8 2 3
2 5 8 7 3 6 4 1 9
3 7 5 4 9 6 2 1 8
8 3 4 5 9 2 6 7 1
5 3 2 7 4 9 8 1 6
7 3 2 4 9 8 5 1 6
6 3 7 2 1 9 8 5 4
9 7 6 4 1 2 8 3 5

3
hDaM(4Gg`"TjFDHj`@EnCMfe
HBJjUhOsCo*.EO4ZuZ_tDt#vpUO~AREvHJY<fmYDyg}KdsRlqFW(z~BbMXfjPw
*@NbSxmUg]7iiHsyE04O]siTQQwgMQms5q:DihpIA1@1ziWC
3 1 2
2 3 1
2 3 1
3 2 1
3 1 2
1 3 2
2 3 1
3 2 1

8
T~2p"o.pkg7oMMNkUvMcU~H+ncPuC3"Y@y'Xn!i$GiKqqns2@<w`hK
LSFIYNlNous4l_rq`ru8B[:afPkmcQGO 0{ryrV~>Xv]EhW8dOeELRLKtdtXxxebsk6"N3E
_OIkN;IuqOZ"0d+sH3/HkXQer@\racoTg*u&}3SFWY`kJ@
oD9'Rdvto^ ZTbEhi]F8,4j5re<\\ImKd"qTqr&ZRtF~VslI?flVGcVtz0B^3B
4Y);nn,U
WBGeg@XPe7O|DuVtVmnZu
mhV'HYQWUb-RjhzAVr9?hr<gZ<f\Q
^ZVIVHn$B}m|DNjUN^w*&cJdNo$fOVty%_bET;kVlBKsCY1gbixiC#IcHBL-X&ytGMwYyn5tIs${2e
8 7 5 4 2 1 3 6

3
JraQDTGoZ2noz`dkTD|s[efGX.(tDXEamxl\c;Y&`qFsZ>'kg=mfqTga5Y+rYCnoG`OkY.CjoBnFAEc
Do!Y:R
=hF"9]lAq]<oyJioSxvmMAfcK[3OkZL)Z.Fy=UJ,\cd'SdXK{5[/hntaZ["DbipZi
3 1 2
2 1 3
1 2 3
2 1 3
3 1 2
